{
    "columns": [
        "ustanova",
        "oznaka",
        "naziv",
        "espb"
    ],
    "column_names": [
        "Ustanova",
        "Oznaka",
        "Naziv",
        "Espb"
    ],
    "delimiter": ",",
    "key": "oznaka",
    "linked_files": [
        "studenti_data.csv",
        "studijski_program_data.csv",
        "nastavni_predmet_data.csv"
    ],
    "type": "sekvencijalna"
}