Program ustanove,Oznaka programa,Blok 1,1,Ustanova predmet,Oznaka predmeta
Program ustanove,Oznaka programa,Blok 2,2,Ustanova predmet,Oznaka predmeta
Program ustanove,Oznaka programa,Blok 3,3,Ustanova predmet,Oznaka predmeta
Program ustanove,Oznaka programa,Blok 4,4,Ustanova predmet,Oznaka predmeta
Program ustanove,Oznaka programa,Blok 5,5,Ustanova predmet,Oznaka predmeta