{
    "columns": [
        "ustanova",
        "nivo",
        "oznaka_programa",
        "naziv_programa"
    ],
    "column_names": [
        "Ustanova", 
        "Nivo", 
        "Oznaka programa", 
        "Naziv programa"
    ],
    "delimiter": ",",
    "key": "ustanova",
    "linked_files": [
        "tok_studija_data.csv",
        "plan_studijske_grupe_data.csv"
    ],
    "type": "sekvencijalna"
}